-119 -358 -793 829 245 -14 86 23 -433 27 938 893 485 -747 260 -179 133 | -114 356 299 -681 -952 -517 139 322 -299 -705 435 -231 237 536 122 -289 147
567 -902 -542 -169 -343 -523 -160 -189 152 148 -689 -656 -505 633 380 759 -363 1000 497 | -800 235 -920 133 -715 -625 11 -504 -644 769 -896 252 925 936 708 -322 -956 -960 978 | -880 -580 770 -196 -626 671 482 -344 575 262 -289 -23 -197 -700 497 -751 898 -992 172 | 738 702 -637 215 -63 153 316 -865 -751 990 141 122 -683 -948 -18 -878 475 -111 -904 | -781 -692 595 11 411 829 323 -689 -133 745 287 481 -194 -687 805 -822 -157 595 237
-847 -389 569 130 231 -97 58 -592 -978 -771 286 450 328 -173 706 -909 700 -490 | -318 304 -636 191 -785 366 -509 -861 -820 -90 -550 -589 -710 -603 848 -340 -943 -444 | 384 -586 -747 -296 -259 43 -904 -758 795 -313 235 847 296 -499 943 435 -217 -837 | -149 -584 73 912 1000 -58 634 417 -47 370 671 -16 85 -910 736 580 -683 -546 | 276 -335 563 -207 -754 -513 -206 -344 415 -327 223 932 200 139 959 -543 142 289 | 568 444 367 -203 -673 -57 917 -251 -23 -644 -333 828 782 881 -640 -309 -882 -432
262 970 336 70 567 147 -582 | 157 -442 -759 -714 288 492 780 | 379 -7 -308 229 327 214 -601 | -498 -810 -397 -794 -36 -484 749 | -941 370 -741 946 -753 -984 -975 | -854 -115 705 113 457 422 609 | -589 -823 -388 -358 353 -585 -564
-325 -506 537 983 -296 -69 -87 955 -164 422 955 -904 181 836 -435 -367 160 70 -446 | -306 190 434 -916 -714 -793 422 -409 -462 -470 -127 -506 880 329 877 998 814 468 63
-985 665 -120 203 441 489 | 188 32 110 -273 -581 437 | 988 962 20 660 -151 280 | -926 -730 938 14 221 -929 | 776 571 -75 -423 149 -521
747 -399 -850 477 | 91 -45 -407 -480 | -99 211 52 278 | -268 -711 -4 -132 | -64 -898 -570 -282 | -346 -875 371 791 | 757 576 -60 33 | 516 -60 900 85 | 666 -42 -264 779 | -475 -941 769 -762
-136 -558 575 -333 25 -676 -83 574 724 -833 | 39 764 -619 927 980 -921 -323 804 265 177 | -498 35 -457 -395 -167 238 -919 941 891 -107 | 887 797 975 -812 -679 44 209 -517 240 -416 | 421 -22 -846 646 43 -840 -991 -117 -883 -126 | -952 334 -487 -280 -597 114 540 418 -670 -356 | 698 920 62 -33 -50 -173 687 -974 86 934 | 60 -33 -6 -707 507 975 -576 807 -150 806 | -315 -32 -775 322 -544 -828 -36 594 -921 -886 | 756 -251 -758 -455 850 -197 -412 187 29 504
151 683 617 -764 | -746 -59 397 -143 | -661 999 708 828 | 687 -609 -365 -997
-445 -680 -750 -22 -268 270 946 | -748 -405 165 -769 -436 692 -551
-768 642 322 -47 -709 | 352 834 439 269 355
964 465 -914 -85 169 942 -153 | -908 -779 963 -17 -794 405 -583 | 800 389 630 753 795 -491 147 | 233 -826 -531 585 286 471 648 | -133 -496 929 -897 -622 -692 -636
-117 -792 270 317 115 | -527 133 -187 -830 99 | 359 -280 -170 -770 -892 | -960 875 920 576 -771 | -547 797 -585 819 693 | -398 -408 -938 523 947 | -545 -504 -785 999 -782
-739 542 -551 -587 -96 830 57 70 43 | -325 -813 499 -583 -951 235 -113 570 657 | 726 -779 228 163 -789 723 600 -474 14 | -950 431 -88 332 587 -776 -956 -715 -436 | 989 292 990 -295 -361 743 -392 -735 -375 | 748 552 190 -245 254 351 -777 199 534 | -467 -661 -459 -539 -599 -316 628 97 75 | -832 -678 -667 -492 -637 572 -826 59 -695 | 746 840 -661 -598 -938 372 -60 98 -641
693 -968 532 -662 309 746 873 | 847 -291 -533 632 773 -385 586 | -848 -827 -800 398 -570 272 -855 | 881 -96 191 810 -511 702 95 | -447 455 940 -744 -830 303 538 | -148 -163 -915 471 -631 -58 718
318 -60 31 942 494 961 -711 956 287 -999 110 670 883 936 859 566 | -408 156 -433 -882 -792 582 -709 471 992 395 798 28 -130 -926 337 -842 | -699 -312 -513 -167 589 -183 613 923 -173 -850 -277 -98 731 -111 423 724
873 -268 279 964 -607 663 -295 -262 | -755 163 894 -578 -513 109 -670 930 | -257 975 -454 109 408 -886 415 -292 | -583 -676 -600 -526 698 -280 822 -832 | -812 270 202 -611 427 347 -284 -99 | -49 227 -234 -799 -752 805 -699 -435
-259 -699 -747 -937 -782 -99 110 -483 971 -941 682 874 517 617 -630 -654 -150 | 860 -32 -445 -161 -385 -156 245 408 703 155 -339 664 -939 922 -697 -110 584 | -233 -546 65 741 -793 -917 -632 659 -701 -375 -198 -572 588 121 -331 238 -863 | -454 402 935 560 527 564 179 -573 -725 -980 595 -2 -258 879 72 342 227 | 506 14 -665 -609 403 613 -291 375 -194 989 -29 153 870 615 -675 -141 -857 | -607 963 247 308 296 580 -574 -155 744 721 295 489 -671 292 -220 354 564 | 893 -339 -416 246 -702 -655 348 -204 899 958 204 -183 569 -631 132 -808 282 | 161 -632 843 376 442 -864 512 -526 -535 -999 -989 -504 -349 798 293 -8 313 | -472 -843 -909 564 -539 957 -192 411 -734 317 -451 -694 -874 365 -758 -439 -627 | 370 944 153 -265 674 282 213 832 -988 733 -972 -167 532 -178 464 687 926
-735 96 -86 -58 578 615 508 -565 937 773 757 -860 821 -467 -457 | 357 -951 48 231 -627 121 -723 -284 -402 269 436 912 797 48 357 | -626 -218 -645 -446 -581 579 181 -499 -433 893 295 -809 309 -123 814 | 895 389 452 313 -551 392 951 -719 457 834 941 433 -703 -402 621 | -172 -858 -156 234 -581 -975 371 -404 -743 -145 713 -402 351 93 -570 | -444 -760 -2 -310 533 -493 -695 -593 297 478 -129 -336 595 968 945 | -126 -299 696 -488 664 -987 802 -185 319 828 -480 85 -694 -948 -90 | -465 938 -924 576 -146 645 338 -787 245 -995 314 30 180 638 497
762 -738 -650 9 -424 | 182 479 -55 785 -306
-451 -136 891 -418 458 475 552 176 299 269 259 530 -38 | 62 588 612 765 527 627 -856 569 454 -678 172 -84 149
-227 -583 489 -771 -944 793 -447 | 441 579 -113 719 -273 -524 71 | 656 -614 -997 129 -638 555 474 | 235 241 -139 804 -222 772 594
-997 -111 -767 972 -532 17 | -114 -915 442 -991 -372 355 | -436 98 -857 823 -255 506 | -409 -422 914 443 -774 -390
1 2 3 4 | 5 6 7 8 | 9 10 11 12
806 -183 -47 541 -746 -649 -53 27 | 403 52 822 -708 802 85 -149 974 | 886 448 -90 -316 -522 -75 223 866 | 529 484 -96 824 -832 609 -295 -531 | -895 -358 328 265 516 612 -101 -759
-687 -542 332 -973 509 -930 325 323 48 -534 953 452 -364 76 -796 | -35 -104 931 -186 181 -770 622 -721 222 369 -166 254 837 -639 -856 | 356 289 731 -816 832 144 770 -994 -783 -714 -863 674 429 -853 -777 | 693 -850 659 607 -236 746 -674 386 -463 -786 462 845 948 -336 963 | -930 831 -919 -142 -554 -646 -96 902 -739 694 -101 -675 -880 955 950 | -261 511 -942 -405 -819 464 747 -51 456 452 573 -112 324 -370 565
959 -336 177 968 -785 -9 935 -875 -903 459 -463 750 -421 -459 30 -178 -832 -884 | 70 134 -151 -446 -817 -986 241 -729 -984 292 -848 -781 712 597 85 960 -187 -907 | -989 38 -458 769 -725 -662 -707 109 -103 -291 -409 406 -392 -472 108 -562 406 -531 | 199 672 972 589 695 -498 110 -197 -760 -761 -166 160 838 199 800 -38 822 -708 | 610 826 963 -131 -692 -663 782 -129 340 478 -876 -436 296 222 -631 761 168 189 | 813 140 209 -43 -433 -12 939 951 -516 644 282 -99 669 -886 -18 -452 472 -62
299 -628 441 258 341 233 -574 60 821 475 -656 737 -552 266 -439 | 44 -825 996 180 984 653 -270 -568 -756 -770 -689 -555 133 936 -738 | 320 -256 833 523 -751 765 -674 -297 590 922 -430 -247 -644 789 314 | 204 -276 992 -189 -978 448 -349 -658 -599 576 304 -428 -56 -456 -202
-932 -580 -778 733 -11 | -395 -398 -161 -406 355 | -360 -698 -72 208 543 | 654 264 303 425 -187 | -647 986 -82 -123 253 | -858 128 -217 -946 -899 | -793 -51 -238 -578 -992 | 549 -725 898 294 -145
-755 705 296 371 724 457 -761 36 526 283 | -937 85 -12 -163 -136 -727 -618 662 -813 -738 | -480 410 355 560 1000 -27 -158 766 -41 -652 | 262 -383 295 576 977 -301 -459 856 -90 -487 | -964 201 -203 309 809 155 -411 808 295 828 | -151 -762 -958 734 334 801 224 -751 397 -673 | 482 975 24 725 841 -138 -756 303 769 894 | 140 977 544 -842 652 320 533 -684 616 632
-17 -161 408 73 | -428 -136 -359 -739 | 954 -15 -549 489 | -542 349 -720 -646 | -717 -488 204 48 | -697 128 -958 -64
69 -466 374 779 907 381 -74 128 237 | 33 -303 -810 237 -562 975 -350 591 -250 | 122 27 -949 250 -678 -474 581 -657 883 | -493 874 575 445 -900 817 472 -381 697 | -598 -383 483 947 -878 -351 966 -578 -746 | 508 -333 -554 692 90 666 766 -41 668 | 592 -805 -605 513 -905 261 -967 311 229 | -263 -171 620 154 -753 -128 -232 -219 518 | 710 -643 -144 367 571 330 187 820 -732 | 596 -549 802 47 147 606 -233 -628 -188
-757 -515 997 653 -902 -207 23 311 977 197 -225 -461 | 253 115 842 832 -48 996 219 515 -2 437 -192 -175 | -917 912 604 862 -33 33 -727 54 -36 814 -952 581 | 447 291 608 66 -957 -9 -964 -151 251 15 -105 847 | 773 -67 -360 -976 -296 650 321 584 -209 -323 -596 -143 | 68 -992 368 -808 896 -534 -522 -288 -424 -299 -808 -573 | 388 261 320 525 747 -845 832 618 714 -831 -150 -249 | -529 388 -842 -874 -509 -867 -114 -342 -576 941 -901 -666 | -527 527 125 130 -862 40 640 884 -99 780 -916 305 | 477 539 832 358 982 -609 284 -1 -203 798 700 -130
232 -257 488 -547 -673 | -761 -595 687 550 73 | 37 831 -380 350 505 | -761 690 47 511 -484 | -218 962 452 -552 223 | 162 731 151 345 -817 | -370 232 158 -410 281 | -631 29 -744 217 516 | 689 -565 612 11 949
-683 758 342 837 | -397 -611 -422 352 | 913 -461 47 985
1 2 3 4 | 5 6 7 8 | 9 10 11 12 | 100 200 300 400
-988 -68 -744 -234 262 124 711 | 698 189 -198 574 537 -382 -607 | 963 -783 696 523 -23 -88 -267 | -239 -375 122 -824 736 -271 -500 | -91 24 558 353 -27 -706 531 | -670 1000 864 -742 221 242 -846
-791 -362 -106 137 478 -308 364 929 -7 150 -566 | -819 321 569 -384 686 -976 -162 -897 229 -796 698 | 91 -325 3 -382 -60 399 -581 918 -641 -551 -906 | -732 -876 -627 431 0 -91 292 352 -416 683 -917 | -423 -346 -855 -969 -91 -641 -941 545 433 -612 -292 | -656 778 -683 631 -627 420 -516 -262 131 -599 878 | -955 -5 497 534 181 -788 -139 -867 935 830 386 | -614 -441 486 -294 -763 -182 981 219 -14 -918 971
-395 -811 3 -707 198 -420 686 551 151 -756 -19 496 -830 505 -493 | 539 -102 935 -763 -823 -64 -36 58 750 -924 -674 274 279 -35 -98 | 367 -612 -538 -122 615 -708 835 -559 508 485 -493 928 587 -756 147 | -25 595 -43 479 691 -461 433 214 -524 882 295 -391 -558 902 761 | -836 634 -263 572 -244 853 -355 568 -122 700 -677 937 -794 -469 -112 | -941 98 889 -838 149 804 -441 729 315 347 664 695 -183 43 394 | -239 -209 -644 -403 452 479 367 259 577 -959 292 555 -349 600 -269 | -817 623 -48 -736 -27 525 -885 -47 -662 187 671 382 279 -116 187
-849 726 -870 -556 -805 | 830 -806 -683 -808 269 | -821 113 -779 -644 -197 | 529 35 808 -982 325